Rule	 Count	 Rank	 Support	 HC	 BC
 _hypernym(A,B) AND _derivationally_related_form(B,C)=>_derivationally_related_form(A,C)	10.0	0	1160	0.03767089923034456	0.023
 _derivationally_related_form(A,B) AND _verb_group(B,C)=>_derivationally_related_form(A,C)	10.0	5	732	0.023771636410872602	0.315
 _hypernym(B,A) AND _derivationally_related_form(B,C)=>_derivationally_related_form(A,C)	10.0	2	1037	0.03367648491540285	0.04
 _derivationally_related_form(A,B) AND _hypernym(B,C)=>_derivationally_related_form(A,C)	10.0	3	1062	0.03448835774364303	0.04
 _derivationally_related_form(A,B) AND _derivationally_related_form(B,C)=>_derivationally_related_form(A,C)	10.0	4	911	0.02958464586107232	0.014
 _verb_group(A,B) AND _derivationally_related_form(B,C)=>_derivationally_related_form(A,C)	10.0	6	711	0.023089663235150847	0.303
 _derivationally_related_form(A,B) AND _hypernym(C,B)=>_derivationally_related_form(A,C)	10.0	1	1165	0.0378332737959926	0.023
 _synset_domain_topic_of(A,B) AND _synset_domain_topic_of(C,B)=>_derivationally_related_form(A,C)	10.0	7	137	0.004449063098756211	0.0
 _synset_domain_topic_of(A,B) AND _hypernym(C,B)=>_derivationally_related_form(A,C)	10.0	8	38	0.0012340466989250803	0.003
 _member_meronym(A,B)=>_derivationally_related_form(A,B)	10.0	11	23	0.0007469230019809697	0.003
 _derivationally_related_form(A,B) AND _synset_domain_topic_of(C,B)=>_derivationally_related_form(A,C)	10.0	10	40	0.001298996525184295	0.011
 _derivationally_related_form(A,B) AND _also_see(B,C)=>_derivationally_related_form(A,C)	10.0	9	87	0.0028253174422758418	0.041
