Rule	 Count	 Rank	 Support	 HC	 BC
 _member_of_domain_usage(A,B) AND _hypernym(C,B)=>_member_of_domain_usage(A,C)	10.0	0	36	0.055299539170506916	0.216
 _member_of_domain_usage(A,B) AND _hypernym(B,C)=>_member_of_domain_usage(A,C)	10.0	1	20	0.030721966205837174	0.046
