[-0.1044059  -0.09492112  0.10934177 -0.10020594 -0.11031301 -0.09158529
 -0.0931042  -0.10769501 -0.11025137 -0.10694741  0.10445959  0.088729
 -0.10222282  0.10314082 -0.10831049 -0.10590938  0.10878651 -0.09119187
  0.11100405  0.09736415 -0.09186281  0.08896204  0.09812904 -0.09307799
 -0.10436989 -0.1039459  -0.09647848  0.10099532 -0.10955007 -0.10650273
 -0.10457277  0.10256471 -0.08969013  0.10625064 -0.09640679  0.10993301
 -0.08683366 -0.0919292  -0.08825846 -0.10002659  0.10343555  0.10752623
 -0.08712159  0.10178706 -0.10628712 -0.09590632  0.0964935   0.09796259
 -0.1087688  -0.10555053  0.09805673  0.10293543 -0.09149427 -0.0937278
 -0.10975071 -0.11016323 -0.08621544 -0.10029477  0.08838415  0.08783229
  0.09723844 -0.08738465  0.10537341  0.1088338   0.09696139 -0.10023703
 -0.10207763  0.10007036  0.10587183 -0.09061476 -0.08880033  0.10655515
 -0.10375428  0.10062855  0.10062112  0.09433921 -0.09855771 -0.09426858
 -0.09329797 -0.08931414 -0.10994513  0.10569678 -0.10792364  0.1078625
 -0.09996185 -0.10043439 -0.10592217  0.08934179 -0.09215944  0.10900405
  0.09418088  0.10777932 -0.1073035   0.09676361 -0.0990803   0.08849388
  0.09195457 -0.09855703  0.10046432 -0.09669883]
[ 0.11112227 -0.08940136  0.1135432   0.10856567 -0.10793972  0.10077186
 -0.1033765  -0.10932622 -0.09434079  0.1060281   0.11047642  0.09794709
 -0.09225798 -0.10674427  0.11247326 -0.0931652   0.09319507  0.10570437
  0.09560159  0.10044657 -0.09483906  0.09706113  0.09696339  0.09522042
 -0.11148537 -0.08786938 -0.10927385  0.11162435 -0.09947675  0.09016268
  0.09705879 -0.08986185 -0.09979408  0.09737912  0.08935975 -0.11080475
 -0.09513902  0.09920095  0.10256205  0.11135918 -0.10800438  0.09589309
 -0.09217343 -0.09867354  0.10203467  0.09054694 -0.09473872 -0.0907345
 -0.09847162 -0.09775861  0.10690632 -0.10302173  0.09411216  0.10991372
 -0.09205955 -0.11231599 -0.09063027 -0.09958785  0.10452577  0.09689247
 -0.09155493 -0.09111397 -0.08994418 -0.11158387 -0.10843387 -0.10230057
 -0.0906084  -0.09031887 -0.11074478  0.09883742  0.09134258  0.11049465
  0.10744684  0.0921837   0.09564287  0.09007478  0.11230241  0.09363014
  0.09408859 -0.09846903  0.09549635  0.09933354  0.09523646 -0.10217401
  0.0951992   0.09256253  0.10480353 -0.10588794 -0.11303386  0.1054891
 -0.09309709 -0.09731811 -0.08923341 -0.10058267 -0.09732883 -0.10060088
  0.10721213  0.09989685 -0.09005919  0.09931809]
[ 0.10452149  0.09018588 -0.09597386 -0.07714959 -0.11330038  0.10305247
  0.11342011 -0.10785109  0.10897008 -0.10896339 -0.09090874  0.09932376
 -0.11269802 -0.10830393 -0.10922454  0.09389388  0.10385921  0.09524482
 -0.09692671  0.09767555 -0.10065678 -0.08958281 -0.08912817  0.10382732
  0.08296967  0.09191844 -0.09843323 -0.10580678  0.11475319 -0.10365951
  0.11187497 -0.11145909  0.10589593  0.10178125 -0.09138452 -0.09858756
  0.08949284 -0.09411125  0.08834574 -0.1027114   0.10462961 -0.11100743
  0.09666298 -0.11454566 -0.09461439  0.088639    0.08541514  0.11075719
  0.09435571 -0.10088216 -0.0943151   0.08648068 -0.10687762 -0.10182823
  0.10539252  0.10540463 -0.10700458 -0.09934739  0.09478371  0.0902687
 -0.11439096  0.11107139 -0.11185357  0.1122824   0.09789675  0.10129023
  0.0931299  -0.1051124   0.08068249 -0.09269062 -0.10524629  0.10923399
 -0.09799393  0.10786612  0.08825452  0.08364238  0.10729149 -0.10526557
 -0.0987054   0.08559293 -0.0887481  -0.10274986  0.10167908 -0.09237707
  0.07182644  0.09550929 -0.10977032  0.10066336 -0.10353097  0.08161604
 -0.09791579  0.09866361 -0.08935815 -0.08996028 -0.10150444 -0.11453189
 -0.10567209  0.10661701  0.09584003 -0.09773417]
[ 0.09650017  0.10910834  0.09180037  0.11235739  0.10305171 -0.09919081
  0.10555535 -0.08804239 -0.11155143 -0.10676859 -0.10736892 -0.09786178
 -0.11176645  0.11244987  0.09875849 -0.10799526  0.09906245 -0.10572867
  0.11010017  0.1010918   0.09827287  0.11511637 -0.0959186  -0.1107306
  0.11397056 -0.11214471 -0.09144875 -0.10149968  0.10102265  0.10465355
  0.11070373 -0.11243048 -0.08343245 -0.09985846 -0.10238744  0.08394898
  0.09536882 -0.07638293 -0.09001107  0.11482915  0.09618513  0.08846798
 -0.10890901  0.09660239  0.10706379 -0.1017755   0.11535542 -0.10588375
  0.0931481  -0.10257196  0.09753643 -0.09907565  0.11385436 -0.10033504
  0.09111358 -0.08740743 -0.10558818  0.10967811  0.06036399  0.08671972
 -0.10354652  0.09712298 -0.09371717 -0.0580547  -0.10668868 -0.10608503
 -0.10648552 -0.10826463  0.02449281  0.11039122  0.1091661   0.08976821
  0.10801546  0.10842497  0.10677912  0.09472718 -0.11313954  0.07483102
  0.10790845  0.09544458 -0.09971876  0.10155212 -0.1025363   0.10032842
 -0.11313925  0.11179607 -0.06291585 -0.10308186  0.01901873  0.10673232
  0.10180715  0.10106338  0.09386569 -0.10711627  0.07985711  0.09370811
 -0.09463914 -0.10148145 -0.09329415  0.10763495]
[ 0.09662989 -0.10878249 -0.09374052 -0.09586699  0.10979158 -0.08528343
  0.09779863  0.08618755 -0.10766803 -0.09598628 -0.10759777  0.08901919
  0.104552    0.1082307   0.09216187 -0.10683678  0.10880946  0.09543974
 -0.09358998  0.10101743 -0.11096086 -0.09219082  0.10710291  0.10979386
 -0.09988081 -0.09741463  0.10122903 -0.10408974 -0.08732876  0.08655109
  0.10523546 -0.09417885 -0.0913223   0.1035414  -0.08638713  0.11304455
  0.11111364  0.09670363  0.1099344  -0.11070617 -0.10351981 -0.09053474
 -0.11024308  0.10752638  0.10753717 -0.1003689  -0.10034221  0.08888081
 -0.09961545 -0.08840992 -0.10158505  0.10753532 -0.08759236  0.09987082
  0.10166957  0.10463687 -0.09801684 -0.10234699  0.09723454  0.09896738
  0.09349862 -0.09382705 -0.08653419 -0.09382449 -0.1117532   0.09379745
 -0.11083743  0.09825461 -0.1056943  -0.10425861 -0.11084717 -0.09390591
 -0.09587339  0.10689271  0.08770408  0.0963878  -0.09503127 -0.10845713
  0.10833191  0.10419048  0.08928484  0.10805162  0.11141251  0.0955285
  0.10109841  0.09327241  0.08909595  0.108719   -0.09601381  0.08575152
 -0.09785964 -0.08889544 -0.09807923  0.09423939  0.10274693  0.08768028
 -0.10516944  0.10630114 -0.1090116   0.10124416]
[ 0.10675573 -0.10128923 -0.11230019  0.09474387  0.07964023  0.09486756
  0.10198676 -0.0942623  -0.09918593  0.09220855  0.09350334  0.09955387
 -0.08909598  0.10954503 -0.10381317 -0.08285738  0.09386275 -0.08813038
  0.08947309  0.10159238  0.08366319  0.0981765  -0.1139612   0.11258256
 -0.0909253  -0.10748319  0.09474096  0.11465255  0.0916294  -0.08584026
 -0.09230953 -0.11097556  0.10389389  0.09856376  0.11283726 -0.11056367
  0.09899874  0.11209545 -0.11173742 -0.09665644  0.11406937 -0.09461173
 -0.11147237  0.09864165 -0.0926174  -0.10372387 -0.11286855 -0.10452592
  0.09263787  0.10796967  0.08367707 -0.10872765 -0.10397054 -0.10071148
 -0.09394012  0.09795035  0.11358145 -0.09860083  0.09536195  0.0984868
 -0.09921458  0.09655538  0.11146232 -0.08459435 -0.09550241  0.11257824
 -0.0938411   0.09615846 -0.11351288 -0.09747872  0.1122202   0.09029067
  0.09754274  0.11456733 -0.0989192  -0.09726541  0.09050484 -0.09398614
  0.10093454  0.07526138  0.09009478 -0.09588065 -0.10858214  0.10319237
  0.11310188  0.09489144 -0.11216656  0.08874097 -0.11019126 -0.09463777
  0.10076814 -0.11371628 -0.10647099  0.08923788  0.10058367 -0.08881538
  0.09717812 -0.08898502  0.09745262 -0.09130381]
[ 0.10476644  0.09850437  0.08419184 -0.10074054  0.09098274  0.10338964
 -0.10194395 -0.09540752  0.11151143  0.10621665  0.05473805  0.09858707
  0.10381433 -0.11041304  0.10717963  0.09732581  0.08069728 -0.08834708
  0.09626655  0.08588368  0.10376712  0.08850745 -0.09898478  0.10126262
 -0.11038302  0.09581286 -0.10781405 -0.10602619 -0.10335792  0.10485658
  0.10886896  0.10935124  0.08525441  0.10705108 -0.0954112  -0.08184847
  0.10732215  0.08800046 -0.11184336 -0.10570576  0.0955451   0.10215122
 -0.10847076 -0.09099577 -0.09377818  0.09644655  0.10681067  0.10297763
  0.11258825 -0.10839277 -0.09027535 -0.07618307  0.09945544 -0.10793571
 -0.09289262 -0.08926872  0.11271534 -0.10366534 -0.10499972 -0.08814297
 -0.10431294  0.08800063  0.10588334 -0.09353337 -0.10855214  0.10898495
 -0.1087125  -0.10480057  0.10858911 -0.08558712  0.10177341 -0.09552876
  0.08426301  0.09214053  0.1108431  -0.10049509 -0.08662979  0.09166781
  0.09177583  0.10370971  0.10232167  0.10113534  0.08717757  0.10654704
 -0.10951942 -0.09622368  0.11059348 -0.09922394 -0.10272238  0.10221635
 -0.10654571 -0.10588319  0.09472564 -0.10978678  0.11147933 -0.10516459
  0.10101848 -0.09907474  0.09393293  0.106585  ]
[ 0.11729968  0.10973933  0.08941793  0.05193721 -0.03363058  0.10800749
  0.09465749 -0.11559471  0.11103981  0.1057893   0.02724586 -0.09662784
  0.11432786  0.09391899 -0.05621206 -0.10508778 -0.10073403  0.11172809
  0.05000472 -0.12004777  0.11767811 -0.11478272  0.10797714 -0.10807706
 -0.01040158  0.10754032 -0.03529592 -0.07759593 -0.10985786 -0.11237402
 -0.10178128  0.10300745 -0.1051985  -0.09903079  0.10048395  0.12019671
 -0.10961963  0.09428202 -0.09702037 -0.06115567  0.11532769  0.12178666
 -0.08222412 -0.09112826 -0.0970107   0.12208791  0.07849043 -0.10174881
  0.05383564  0.0924404  -0.11120297  0.08819149  0.11810052  0.10898016
  0.10832483  0.10959403 -0.10150331  0.11415423 -0.11749524  0.09798834
  0.06677999  0.12132931 -0.04308873 -0.105756   -0.11337716  0.10836281
 -0.10064153  0.10366995  0.10914024  0.12051827 -0.09791496 -0.09251802
  0.10866088 -0.09369341 -0.0909088  -0.08253583  0.11798964  0.10381876
  0.11469521 -0.10411162  0.05173242  0.11776163 -0.10859828 -0.11850565
 -0.09807209  0.10741103  0.1080493   0.1118983   0.11261135 -0.11734156
 -0.12066218  0.05997401 -0.10790806  0.10268833  0.11359766  0.09794952
 -0.11622346 -0.02623424  0.07517248 -0.09627609]
[-0.09548756 -0.11046034  0.11117313 -0.08459148  0.11610975  0.09192762
 -0.10125177  0.10936323 -0.10625847  0.1131148  -0.10777584 -0.0929758
  0.10503077 -0.07493757  0.0775303   0.08128405 -0.11755065  0.11210333
  0.04355204  0.09220061 -0.10076184  0.10443614  0.04503083 -0.10824616
  0.11092032 -0.10377958  0.0441376  -0.11642943  0.09247776 -0.11521304
 -0.11927558 -0.11625143 -0.09158102  0.07326529 -0.10637666  0.1157067
  0.09834602  0.11279221  0.10834122  0.09752057 -0.11675352  0.06887115
  0.10866969  0.10768989 -0.09322522  0.05884782  0.10155118 -0.11528806
 -0.11559065 -0.09700219  0.10003651 -0.10070518  0.09906545 -0.09328523
  0.10979901  0.10384395 -0.11991376 -0.03661329 -0.09335785 -0.1182342
 -0.11828044 -0.11179514  0.06711265 -0.11619415 -0.09083336 -0.10726752
  0.11172207 -0.09800623 -0.11982395  0.11179925  0.09725782 -0.09764334
  0.09122292 -0.10119762 -0.09822502 -0.093241   -0.10714955  0.09731551
 -0.0979575  -0.10803209  0.08429535 -0.09725626  0.11328202  0.10211306
 -0.11844752  0.11144178 -0.11494069 -0.09855057  0.09116466  0.08382379
  0.0828468  -0.0580489  -0.09803796 -0.08940924  0.07995877  0.10590091
  0.11958957 -0.0786732  -0.10137902  0.08536327]
[ 0.08499785 -0.09633456  0.05416733  0.10878833  0.09947741  0.10689203
  0.09992766  0.09902302 -0.09728874 -0.10497336  0.09345562  0.10525937
  0.1111687   0.0985558   0.11537014  0.10852771 -0.10003482 -0.10857423
  0.08465244  0.11324576 -0.09029773  0.09313005 -0.10970797 -0.10077909
  0.11120204 -0.10020539  0.11144122  0.09794729  0.10959169  0.10508061
 -0.09310074  0.07647665 -0.08672155  0.11052872  0.10264129  0.08162272
  0.08932724 -0.11351313  0.09718417  0.07691007  0.107503    0.09738875
  0.08230045  0.07051513 -0.10309444  0.11346895  0.09676008 -0.10704311
 -0.11261102 -0.08401211  0.11463649  0.10499199  0.10303334 -0.09952179
  0.10047092  0.09729278  0.08584186  0.09333537 -0.08247568 -0.10844255
 -0.09468355  0.11459435  0.09067503 -0.09839746  0.09068403  0.0905242
  0.11525089  0.10678053 -0.09165888  0.11373805  0.09297226  0.10867918
  0.10604553  0.0827392   0.09738889 -0.10959471 -0.11221884  0.09188589
  0.09456704  0.09561756  0.07081792  0.09543525  0.09780007 -0.08628467
  0.10948651  0.11327331 -0.09935256  0.10665841  0.07975484  0.10305818
  0.10461166 -0.10775702 -0.10840794  0.10345972 -0.10854708  0.1060871
  0.10815538  0.11537977 -0.09325911 -0.10451049]
[-0.07320181  0.12983394 -0.05657607  0.09008709 -0.04890392 -0.02132672
  0.09341658 -0.10700609 -0.09410529  0.12359183  0.09612838  0.1132698
  0.11639317  0.06516445 -0.08323782  0.06343523 -0.09131168  0.1036441
 -0.1214522  -0.1253995  -0.11478329 -0.12165198  0.12382397  0.1045178
 -0.10996114  0.0647337  -0.10837772  0.09324437  0.11681283  0.11474463
 -0.10783545 -0.12827301 -0.10814779  0.11749142 -0.11189717  0.10480982
 -0.00089852 -0.1214152   0.10586908  0.11325523  0.11961474  0.05865345
  0.09978189  0.12749895  0.01946711  0.11741842 -0.0770738   0.12263318
 -0.06963995 -0.11440653  0.11500955 -0.08354891 -0.10528195  0.00080477
  0.12534301 -0.11779737 -0.12469149 -0.11558528  0.02678602 -0.08920629
 -0.127076    0.10142147 -0.05029656 -0.03803778  0.09912428  0.11705606
  0.08666919  0.11724999  0.06914522 -0.10353837  0.09244356  0.11336954
  0.11827154 -0.11665618 -0.00412541  0.08878233 -0.09788751 -0.13210183
  0.11036604  0.094119    0.10845654  0.01001742  0.09189256  0.10958857
  0.01502174  0.09174726  0.11729424 -0.11696313 -0.0968516   0.13445666
 -0.08483414 -0.1222439  -0.11758555 -0.08772061  0.09353217  0.13097358
 -0.02785285  0.09690102 -0.12371276  0.0569722 ]
